,test-auc-mean,test-auc-std,train-auc-mean,train-auc-std
0,0.7304615999999999,0.0008908312073563416,0.7412810000000001,0.0016615858689818374
1,0.7472916000000001,0.0014954800700778341,0.7599758000000001,0.001739311863927804
2,0.7536104,0.0017308080887261756,0.7679892,0.002016684248959169
3,0.7575444,0.002023496241657016,0.7723532,0.002370792053302028
4,0.7605544,0.0019256334646032976,0.7767294,0.002196635572870475
5,0.7627406000000001,0.002877594523208581,0.7795616,0.0024661238898319865
6,0.7649638000000001,0.0028318361110770598,0.7823312,0.001329199819440246
7,0.7661526000000001,0.0032763649735644443,0.7844066,0.0015440162693443281
8,0.7673650000000001,0.003543963713132541,0.7868042,0.0015913940304022724
9,0.7685872,0.003142394144597386,0.7882668,0.0014346343645681764
10,0.7695536,0.002832080832179766,0.7900507999999999,0.0011943147658804308
11,0.7702344000000001,0.0030010647177293585,0.791538,0.0008709316850362196
12,0.77108,0.0030622416625733307,0.7928504,0.0007906978183857899
13,0.7721060000000001,0.0031042394881838587,0.794671,0.0008811020372238497
14,0.7725906,0.0029108842367912744,0.7958626000000001,0.0008055528784629836
15,0.7734892,0.002907643196817651,0.7971318000000001,0.0006134220080825282
16,0.7743606,0.0024860888640593666,0.7985038,0.0006648008423580699
17,0.7749636,0.0024282089366444632,0.7996508,0.00060905546545451
18,0.7757225999999999,0.0022819051338738884,0.8012708,0.0006316034832076164
19,0.7763356,0.002389910592469923,0.8024044,0.0006256195649114661
20,0.7769218,0.0022502477552483005,0.8035820000000001,0.0006502710204214997
21,0.7775016,0.00234116369355071,0.8050004,0.0005431885860362037
22,0.7784894,0.0023752971687770077,0.8065578,0.0006977932071896298
23,0.7790906,0.0023066634431576486,0.8081153999999999,0.0005411648916919935
24,0.7797622000000001,0.002452672615739837,0.8096821999999999,0.0005171921886494209
25,0.7805094,0.002577218003972502,0.8112490000000001,0.0004950846392284789
26,0.7814664,0.002622948691835189,0.8129476,0.00050751732975339
27,0.782003,0.002645590520091875,0.8144322,0.0004443603942747205
28,0.7825954,0.002635002588234038,0.8156700000000001,0.0004953019281206116
29,0.7832554,0.002529186952362364,0.8170276,0.00045385883267818575
30,0.7836826,0.0024431998362802916,0.8184846,0.0004715949957325741
31,0.7844070000000001,0.0022446326202744155,0.8199173999999999,0.0004310422717089311
32,0.7849118,0.002291188634748355,0.8214629999999999,0.0005162266943892057
33,0.7854444,0.0021586449082700012,0.8228005999999999,0.0006520222695583613
34,0.7859402,0.0019552409979334954,0.8240111999999999,0.0004867612967359134
35,0.7866292,0.0018112715312729912,0.8252780000000002,0.0005634348232049739
36,0.7870240000000001,0.0018134657427147454,0.8265370000000001,0.0005617857242757197
37,0.7874140000000001,0.001766153673947975,0.8278688000000001,0.0005255295995469648
38,0.7880144,0.00173104715129311,0.8291748,0.0005333919384467664
39,0.7886858,0.0018075339443562241,0.8304128000000001,0.0005526428865008579
40,0.7892423999999999,0.0018081881096832953,0.8315851999999999,0.0006360296848418659
41,0.7897040000000001,0.0017618663967508975,0.8328237999999999,0.0007360585302813846
42,0.7899264,0.0017518047379773945,0.8339972,0.0008135756633528158
43,0.7903026,0.001776383021760824,0.8351506000000001,0.00090077957348065
44,0.7908504000000001,0.0017065266010232436,0.8362524,0.000924624161483985
45,0.7909254,0.0017318815894858432,0.8373474,0.0008610492668831334
46,0.791226,0.0018629605470862859,0.838595,0.0007818119978614068
47,0.7914220000000001,0.001865070722519672,0.8396839999999999,0.0007419223679064956
48,0.7917352,0.001852433361824385,0.8406705999999999,0.0007737546381121052
49,0.7918409999999999,0.0019396523399826063,0.8417138,0.0006550698894011263
50,0.7921818,0.001837145982223543,0.8429095999999999,0.0005619710312818611
51,0.7925676,0.001824072652061839,0.843784,0.0005917739433263247
52,0.7929472000000001,0.0017989840910914358,0.8447265999999999,0.0007019534457497527
53,0.7931672000000001,0.0018120355846395603,0.8458902,0.0007928377892103579
54,0.7932840000000001,0.0019372715865360708,0.8467974,0.0008759062963582279
55,0.7935426000000001,0.0019178607457268717,0.8475382,0.0008828683707099382
56,0.7937806000000001,0.0019885348978582384,0.848414,0.0009040411495059189
57,0.7939742000000001,0.001998816589885137,0.8492998,0.0010144981813684942
58,0.7941088,0.001983433326330891,0.8501268,0.00103770138286505
59,0.7943256,0.0018873855567954343,0.8508818,0.00089803126894333
60,0.7946066,0.0018217368196311913,0.8515964,0.000985691554189244
61,0.794797,0.001807521728776744,0.8522442,0.0008849337602329285
62,0.7949732,0.0018804423309423857,0.8528414,0.0009603763012486278
63,0.7950382000000001,0.0018650809526666644,0.853416,0.0008964655040769958
64,0.7951845999999999,0.0018388516634030084,0.85411,0.0009381579824315373
65,0.7953536,0.0017088785328395896,0.8548646,0.0010344302006418716
66,0.7955074,0.0017150926039138342,0.8555550000000001,0.001207823662626285
67,0.7957150000000001,0.0017762949079474274,0.8563188,0.0010560870039916083
68,0.7957987999999999,0.0016448244161611917,0.8568472,0.0011620757978720387
69,0.7959284,0.0017061530529234603,0.8573652,0.0010447796705525829
70,0.7959784,0.001684511395034173,0.8579051999999999,0.0011156914268739247
71,0.7961342,0.0016353195895603921,0.8586286,0.0012738069869489754
72,0.7961023999999999,0.0015514923912156237,0.8592943999999999,0.0010950423918734918
73,0.7962738,0.0015970664857794773,0.8600450000000001,0.0011377843380887308
74,0.7963937999999999,0.0015685646177317366,0.8605992,0.001306081681978618
75,0.7963788,0.0016494161876252128,0.8611129999999999,0.0012957951998676107
76,0.7964468,0.0017362626990176286,0.8615724,0.0013188121321855968
77,0.7965984,0.0016737860795215072,0.8621012,0.001347180077049846
78,0.7967252,0.0016818523597509774,0.8627246000000002,0.0013923779084717121
79,0.7967928,0.0016884740329658413,0.8632516000000001,0.00127253645920265
80,0.7968894000000001,0.0015721346761648658,0.8637267999999999,0.0013577177026171483
81,0.796921,0.0015384654692257424,0.8642462,0.0014201730035457117
82,0.7968876,0.001581706243270229,0.8647322,0.0014578366712358305
83,0.7969876,0.0015988456585924974,0.8652510000000001,0.0013958252039564297
84,0.7970170000000001,0.0015915555912377048,0.8660102000000001,0.0014353844641767717
85,0.7971622,0.0015904154677316153,0.8665727999999999,0.0015303073416800855
86,0.7972176000000001,0.001525553748643413,0.8670934000000001,0.0014303729024278742
87,0.7972697999999999,0.0015818169805638074,0.867512,0.0014726926359563276
88,0.7973992,0.0016524284432313152,0.8681835999999998,0.0013281094232027919
89,0.7974583999999999,0.001755075679279926,0.8688573999999999,0.0013260804802122856
90,0.7975,0.0017868404517471673,0.8692518,0.0013152122870472244
91,0.7975418000000001,0.0018320145632608892,0.8696870000000001,0.001253511388061568
92,0.7975276,0.0017864940638020515,0.8702274000000001,0.001179987050776399
93,0.7975854,0.001815570720186875,0.87076,0.0011837263197208988
94,0.7976342,0.0018160935438462263,0.8713512,0.0011788973492208854
95,0.7975724,0.0018474846251051644,0.8718244,0.0012077268896567394
96,0.7976672,0.001895576577192286,0.8725806,0.0012542546152994735
97,0.7976960000000001,0.0019029431941074626,0.8729676,0.0012021624848580286
98,0.7977879999999999,0.0018033732835993836,0.8734792,0.001230786967756824
99,0.7978099999999999,0.001822690319280805,0.8740781999999999,0.001348008813027597
100,0.7979459999999999,0.001844683279048191,0.8745828,0.0012997965071502634
101,0.7979798,0.0018647139619791548,0.8749568,0.001346934653203344
102,0.7980104,0.0019162893935937581,0.8755944,0.0013488309901540695
103,0.7979831999999999,0.0018051152206992095,0.876047,0.0012099778510369355
104,0.7981064,0.0017397372905125655,0.8766950000000001,0.0012979644062916342
105,0.79815,0.0017273634244130628,0.8771858,0.0013403218121033613
106,0.7982853999999999,0.001668791251175535,0.8776622,0.001241523966744113
107,0.7983505999999999,0.001734460100434722,0.878144,0.0012193055400513784
108,0.798331,0.0017616829453678715,0.8788386000000001,0.0012440883569907622
109,0.7982844,0.0018791800978086293,0.879567,0.0013030008442054396
110,0.7982628,0.0018748637710511056,0.8800406000000001,0.0011237694781404083
111,0.7982544,0.0018694864107556427,0.8804384000000001,0.0011873837795759305
112,0.7983062,0.0018717537658570285,0.8809034,0.0011187980336057185
113,0.7983543999999999,0.0019166349261139984,0.881509,0.001094898716777039
114,0.7983864,0.001885305556136717,0.8819815999999999,0.001010313733451156
115,0.7983482000000001,0.0019028233128695895,0.8823610000000001,0.0009805084395353044
116,0.7982706,0.0019558002556498326,0.8828429999999999,0.0010367308233094914
117,0.7983457999999999,0.0018582245720041477,0.8833878000000001,0.0010189303018361955
118,0.7983398,0.0019302499734490182,0.8838124,0.0009230936247207137
119,0.7983005999999999,0.0019160928578751118,0.8843960000000001,0.0008486594134280207
120,0.7983790000000001,0.0018615006849313836,0.8849766000000001,0.0008458819302952296
121,0.7983401999999999,0.0018278180872285975,0.885493,0.0008265591327908786
122,0.7984053999999999,0.0018670667476017029,0.8860654,0.0007266475349163397
123,0.7983346,0.0019067840569922773,0.8864126000000001,0.0007015803874111546
124,0.7983613999999999,0.0018733273712835167,0.8868434000000001,0.0005471579662218449
125,0.7984864,0.0019341915727248875,0.8873857999999999,0.000643602175260485
126,0.798472,0.001979578844097894,0.8879808,0.000622438880533685
127,0.7985764,0.0019254154460791038,0.8883796,0.0006975731072797937
128,0.798555,0.0019251342810308197,0.8888494000000001,0.0007938958621884865
129,0.7985489999999998,0.0018275495068533498,0.8893654,0.0008068699027724393
130,0.7986244000000001,0.00187516533671031,0.8899044,0.0008651664810890517
131,0.7986732,0.001799473967580504,0.8904460000000001,0.0010712603791795934
132,0.7986492000000001,0.001830178723513084,0.8910284,0.0010294454040890217
133,0.7986717999999999,0.0018589611507506142,0.8915635999999999,0.0009981131398794744
134,0.7987268000000001,0.001890010095211121,0.8919998,0.0009117625568096296
135,0.798838,0.0019366114736828594,0.8924237999999999,0.0008096395247269075
136,0.7988418,0.0019174892333465605,0.8928904,0.0008673445912669305
137,0.7986904,0.0018637343802162577,0.8933204,0.0007255438236247298
138,0.7988158000000001,0.001820479541219825,0.8937544,0.0008029708836564276
139,0.798876,0.0017795182494147208,0.8942022,0.0006829680519614343
140,0.7989392000000001,0.0018597891708470743,0.8946892,0.0007673891841823257
141,0.7990138,0.0019004879794410655,0.8950938,0.0008044181499693113
142,0.7990256,0.0019299111482138321,0.895443,0.0008931008901574311
143,0.7990686,0.0019033428067481834,0.8958436000000001,0.0009577671115673315
144,0.7991196,0.0019063780947125926,0.8962026,0.0009549742614332607
145,0.7990636,0.001904628320696713,0.8967174,0.001036007644759464
146,0.7990508000000001,0.0018853599550218353,0.8972886000000001,0.001137147589365618
147,0.7990482000000001,0.0018981354430071622,0.8977242000000001,0.0011007436395455712
148,0.7991614,0.0018747389791648466,0.8981508,0.001102357183493653
149,0.7990874,0.0019372304560893372,0.898615,0.001106435357352608
150,0.7991234,0.0019337189661375492,0.8991074000000001,0.0010617835184254945
151,0.7990976000000001,0.0019003803408791655,0.8994696,0.000986070707403893
152,0.79911,0.0018682497691690162,0.899892,0.0009904449505146744
153,0.7991358,0.001881912367779098,0.9003804000000001,0.0010145640640196235
154,0.799148,0.0018918294849166136,0.9009701999999999,0.001057745224522446
155,0.799146,0.0019134960674116604,0.9013286,0.001112110534074746
156,0.7992254,0.001931839910551593,0.9018308000000002,0.0011112347006820694
157,0.7992152,0.0018766292548076748,0.9021379999999999,0.0011551715024185753
158,0.7992393999999999,0.001854791805028252,0.9024956,0.001148192422897857
