,test-auc-mean,test-auc-std,train-auc-mean,train-auc-std
0,0.8194224,0.015931775903520608,0.8321282,0.009726091905796494
1,0.8488522,0.008442106500157398,0.8681736000000001,0.0045127816964705995
2,0.8595444000000001,0.007261685578431526,0.8791522,0.009696662155607978
3,0.868595,0.005066181086380545,0.8900119999999999,0.00897562951552704
4,0.8789773999999999,0.003857080792516521,0.9009083999999999,0.004739348334950689
5,0.8862076,0.0017477002717857465,0.9075086000000001,0.004920826824833411
6,0.8910233999999999,0.004379145240797573,0.9136526,0.004692753503008669
7,0.895065,0.005052962536967799,0.917546,0.005165700455891738
8,0.8963476,0.005960403194415612,0.9189388,0.004691046382205148
9,0.8976604,0.00590007673170442,0.9211696,0.0046571150125372576
10,0.9011978,0.0062308088527894805,0.9248574000000002,0.004012493668530822
11,0.9025774,0.005789182795524759,0.9266194000000001,0.0036296683374655455
12,0.9034614,0.004711146510139535,0.9278408,0.0030628843530240988
13,0.9049826,0.005278600594854672,0.9297362,0.0035434348533591002
14,0.9053740000000001,0.0047275432520496475,0.9310201999999999,0.0030389406970192634
15,0.9070638000000001,0.004752685657604568,0.9330086,0.0020117012303023283
16,0.9066854,0.004325451495508895,0.9338002,0.0020260708181107766
17,0.9075347999999999,0.004202075982178335,0.9348544000000001,0.002348638379998044
18,0.9088482000000001,0.004691588319535305,0.9365545999999998,0.002442222807198385
19,0.9089262,0.004516077652122484,0.9370638,0.0020602095427407507
20,0.9105532000000001,0.005031768770521944,0.9381806000000001,0.0023513892574390694
21,0.910952,0.00499551046440701,0.9393798,0.0026073566230954844
22,0.9117801999999999,0.0042000858753125404,0.9405981999999999,0.0024293713919448057
23,0.9118310000000001,0.004139421457160399,0.9424225999999999,0.001577822246008734
24,0.9125029999999998,0.004778736946097812,0.9434916,0.0011043453445367412
25,0.9133898,0.0061977335018537335,0.9447816,0.0008732368750803077
26,0.9137945999999999,0.005589161711741774,0.9461617999999999,0.0006145904001853599
27,0.9151014,0.005255696208876611,0.9474503999999999,0.0010980828019780662
28,0.9160777999999998,0.004776747403830372,0.9486895999999998,0.0014126431396499078
29,0.9160410000000001,0.00531600703536026,0.9497932,0.0008586292331384859
30,0.9177120000000001,0.0042458678735918885,0.9516826,0.0014623453217348843
31,0.9179874,0.005228797169521883,0.9532252,0.001212187015274468
32,0.9185366,0.005729565065517629,0.9541684,0.0013070439319319096
33,0.9193728,0.0058928926479276745,0.9555811999999999,0.0007991796794213347
34,0.9191126000000001,0.006098682336373965,0.956761,0.0012757137609981286
35,0.9197794,0.006738234445312792,0.9576298000000001,0.0011984807716438376
36,0.9199658,0.007026612708837735,0.9591278000000001,0.0014375083164976632
37,0.9202792000000001,0.00720318302974456,0.9601236,0.0014335538497035785
38,0.920524,0.006674082738474244,0.9608162,0.0013401728843698115
39,0.920998,0.006588902245442714,0.9619154,0.0015451519795799831
40,0.9206002,0.006692493627938691,0.9630272,0.0018290952298882887
41,0.9205691999999999,0.007347169343359389,0.9646319999999999,0.0018642195149713354
42,0.9206069999999998,0.007519755394958017,0.9657655999999999,0.0015716089335454822
43,0.9212942,0.006971028515219238,0.9669822,0.0016707942302988544
44,0.9214986,0.007100710375730045,0.9678621999999999,0.0014196445188848932
45,0.9220577999999999,0.0068501870748176995,0.9689504,0.001219321877110358
46,0.9226734000000001,0.007518758690103052,0.9696994,0.0010836275374869404
47,0.9228964,0.007563879232245845,0.9707636,0.001368866626081568
48,0.9234848,0.007037835985585362,0.9714418,0.0014419053228280946
49,0.9240784000000002,0.006470446309181482,0.9722681999999999,0.001570694547007785
50,0.9243838,0.006945914666910328,0.9732349999999999,0.0013760715097697457
51,0.9247400000000001,0.007072785929179522,0.9741107999999998,0.0012196887143857487
52,0.9242346000000001,0.00686667936050608,0.9751369999999999,0.0009583673617146922
53,0.9248828,0.006932365004816176,0.9757626,0.0008554747453899471
54,0.9250652,0.00684689697308204,0.9764324,0.0008134432002297538
55,0.9256658000000002,0.0067045057207821175,0.9771699999999999,0.0008683554571717797
56,0.925953,0.006164367283022639,0.9780626,0.0006778054588154393
57,0.9267692000000001,0.006378435526051817,0.9789486000000001,0.0005754325677262042
58,0.9264088000000001,0.006507115686692537,0.9795976,0.0005291315904385295
59,0.926655,0.006403202729884474,0.9801558,0.00037260295221588224
60,0.9268742,0.006344220090759808,0.9806236,0.00031692497534905044
61,0.927159,0.006143348109947854,0.9811378000000002,0.0004259471328698221
62,0.9279472,0.00579836868093086,0.9816777999999999,0.0004241704374423157
63,0.9284142,0.005696108791095895,0.9821802,0.00040657466718920405
64,0.9283588,0.005703427194240321,0.9827067999999999,0.0003068963342889551
65,0.9286215999999999,0.006234706235260801,0.983168,0.00029462111261755424
66,0.9288674,0.006118918061226182,0.9836275999999999,0.0003071238186790395
67,0.9288568000000001,0.0061158705807104734,0.9839933999999999,0.00033582233398033986
68,0.9293142000000001,0.006092295442606183,0.9844718,0.00027131855815627765
69,0.9295475999999999,0.006282523429323603,0.9849044000000001,0.000315349076421636
70,0.9295041999999999,0.0063745649388801395,0.9853392,0.00036305503715001596
71,0.9293742,0.006080174352763275,0.9856556000000001,0.00041472959865436937
72,0.9292044,0.0059801751345592,0.9858689999999999,0.0003964921184588519
73,0.9294792000000001,0.006078815654385308,0.9861983999999999,0.0004228733143625938
74,0.9297504,0.006305088535460855,0.986639,0.00033026777015020536
75,0.9298134000000001,0.006294645870896957,0.9869785999999999,0.00038429707258835815
76,0.9297850000000001,0.006328210394732441,0.9872882000000001,0.00037966585308661974
77,0.9299372,0.006315715110737643,0.9875887999999999,0.0004590875297805263
78,0.9299414,0.006094365023527888,0.9878602000000001,0.0005766542811771846
79,0.9303706,0.005777765263490696,0.98813,0.0005057307584080742
80,0.9300648,0.005969253735602132,0.9884661999999999,0.00036071673096770186
81,0.9298629999999999,0.006212062974568096,0.9887447999999999,0.00038020489213055463
82,0.9301098,0.00614302861461675,0.989029,0.00034450718425019537
83,0.9299244,0.006241713021278715,0.9892673999999999,0.00037357441025850094
84,0.9299303999999999,0.006049204893207042,0.9895014,0.0003314975716351667
85,0.9300765999999999,0.006161501784467797,0.9897848,0.00038994225213483786
86,0.9304176,0.006045400949482181,0.99006,0.00041084206211146145
87,0.9303648000000001,0.006240002384614916,0.9902811999999999,0.00043243283871600865
88,0.9304817999999999,0.006281237438594399,0.9905106,0.00038267824605012625
89,0.9306402,0.00603361422034919,0.9906994000000001,0.0003503590158680217
90,0.9306554,0.005741493380645854,0.9908746,0.0003530312167500273
91,0.9307252,0.005732283119316414,0.9911384,0.0003907309048437384
92,0.9306666,0.0056010106802254975,0.9914248000000001,0.0004901017853466834
93,0.930588,0.0057070230067873115,0.9915953999999999,0.00045026774257104634
94,0.9305682,0.005883733964074157,0.9917874,0.00048539987639060925
95,0.9304843999999999,0.005643342222477727,0.9919608,0.0005108985809336429
96,0.9304450000000001,0.005793739379709794,0.9921489999999998,0.0005311832075659327
97,0.9304103999999999,0.005737496408713474,0.9923736000000002,0.0005726135171299934
98,0.9305506000000001,0.005898806509794995,0.9925535999999999,0.000552279856594466
99,0.9305183999999999,0.00590692060552704,0.9926968,0.0005836620254907635
100,0.9306598000000001,0.005741730066800412,0.9929504,0.0006569473647104721
101,0.9309329999999999,0.0054467417416286905,0.9931365999999999,0.000671042353357837
102,0.9308458000000002,0.005366723074651796,0.993362,0.0006437176399633415
103,0.930843,0.005275984192546454,0.9934818,0.0006754493023165998
104,0.9307928000000001,0.0052736608309598395,0.993709,0.0007119013976668426
105,0.9306315999999999,0.005343790811773976,0.9938572000000001,0.0007008963974796844
106,0.9306829999999999,0.005196064626233951,0.9939321999999999,0.0007201248225134301
107,0.9307558,0.005381376901871864,0.9940878,0.0006818065414764001
108,0.9308858000000001,0.00528359235369273,0.9943367999999999,0.000669773513958288
109,0.9310691999999999,0.005080947643894798,0.9944544000000001,0.0006334229550624281
110,0.9311128,0.004997712892914092,0.9945668,0.0006846553585563906
