,test-auc-mean,test-auc-std,train-auc-mean,train-auc-std
0,0.7306282000000001,0.003379587158219174,0.7411628,0.0027863186752415847
1,0.7468188,0.0008798944027552494,0.7602363999999999,0.0020972122067163244
2,0.7537299999999999,0.002180791874526339,0.7692898,0.0019176077179652797
3,0.7574768000000001,0.0024760574629842484,0.7730018000000001,0.002343287809894468
4,0.7606814,0.0019801595491272996,0.7766822,0.0016291069209846219
5,0.762447,0.0015015618535378515,0.7793338,0.0012814038239368653
6,0.7637446000000001,0.0020113340448567885,0.782003,0.002018133097692023
7,0.7654992,0.0017932947777763877,0.7844388,0.0020849141373207804
8,0.766923,0.001313594762474329,0.7865270000000001,0.0015961998621726427
9,0.7678699999999999,0.0012547026739430935,0.7880516,0.001731033171259268
10,0.7688969999999999,0.0010168250586998708,0.789716,0.001820485210047036
11,0.7694324,0.000735381152872455,0.7913116,0.001736972722871624
12,0.7708872,0.0006399663741166587,0.7928852,0.0014353889229055694
13,0.7717494000000001,0.001248194311796042,0.7942354,0.0013658158880317489
14,0.7729368,0.0013021384565398773,0.7957698000000001,0.0012512541548382384
15,0.7734298,0.0016134729498817441,0.7970596000000001,0.00124179396036542
16,0.7745446000000001,0.0016216985663186582,0.7987206,0.001317916021603811
17,0.7750994,0.0014243400717525191,0.8001414,0.0010826230368876921
18,0.775773,0.0012933523881758094,0.8014493999999999,0.0009879406055021578
19,0.7764908,0.0013220230557747256,0.8030113999999999,0.0010156049625715932
20,0.777273,0.0014518158285402793,0.8045227999999998,0.0007701819005923255
21,0.7780813999999999,0.0015741714773175016,0.8060447999999999,0.0007273652177551399
22,0.7787986,0.0014101745423882922,0.8074986,0.0007000893085885591
23,0.7794813999999999,0.001442408208517982,0.8087361999999999,0.0006172712207773758
24,0.7801892,0.001414998431094554,0.8100538,0.0005395803554615472
25,0.7808743999999999,0.0014309007792296352,0.8114931999999999,0.00046511994152047584
26,0.7815407999999999,0.001321444270485899,0.8129872,0.00041438889946521435
27,0.7821198,0.0013815720610956452,0.8143152,0.0006230513301486564
28,0.782848,0.001190785455067365,0.815631,0.0006267557738066699
29,0.7834364,0.0011942664024412568,0.8171161999999998,0.0003886239313269166
30,0.7840849999999999,0.0011219281616930696,0.8183986000000001,0.0003160105061544734
31,0.7846393999999999,0.00123361089489353,0.8197136,0.0004216840523425158
32,0.785082,0.0013031144232184657,0.8210016,0.0005288487874619708
33,0.7857495999999999,0.0012722730210139735,0.8225156,0.000474476806598558
34,0.786357,0.0011809282789399006,0.8238456,0.0003968982741206999
35,0.7868945999999999,0.0011922291054994468,0.8251785999999999,0.0003513241238514577
36,0.7873392000000001,0.0012092075752326505,0.8266036,0.0003994153727637468
37,0.7876628,0.001064647622455423,0.8278022,0.00039971459818226296
38,0.7880522,0.0010230222675973399,0.8290606,0.0004435829572921106
39,0.7884787999999999,0.001114017665928137,0.8303388,0.0005910009813866894
40,0.7889090000000001,0.001288731624505268,0.8315607999999999,0.0005771760216779571
41,0.789259,0.0013326063184601704,0.832832,0.0005554187609362854
42,0.7897914,0.0012929285517769091,0.8339399999999999,0.0005206253931571369
43,0.7902256000000001,0.0013100578002515693,0.8352118000000001,0.0005100899528514627
44,0.7907385999999998,0.0012157796839888453,0.8364428,0.000486775266421761
45,0.791196,0.0011778619613520029,0.8376778,0.00045333757841148196
46,0.791536,0.0011729901960374517,0.838893,0.00047681149315005904
47,0.7917588,0.0010903642327222606,0.8399151999999999,0.0004834986659754169
48,0.792112,0.0010734846063171993,0.8409679999999999,0.0005311165597117052
49,0.7923682,0.001080781458020063,0.8420698,0.000572917236605761
50,0.7926822,0.0012270118825830495,0.8430294,0.0005163078926377188
51,0.7929318000000001,0.0012432678552910398,0.8439989999999999,0.000606753656766925
52,0.7931752,0.001348422396728848,0.8450208,0.0006898679293893805
53,0.7934493999999999,0.0014329205979397497,0.8459774,0.0007168153458178954
54,0.7937413999999999,0.0015655079175782066,0.8469028,0.0006938531256685455
55,0.7938208,0.0015852822335470848,0.8476964,0.0006904267086374978
56,0.7940292,0.0015178557770750068,0.8485194,0.0007653967859875031
57,0.7942522000000001,0.0015758784724717652,0.8492112,0.0007832382523855795
58,0.7944062000000001,0.001584602587401646,0.8500096000000001,0.0007477124046048494
59,0.7945772000000001,0.0014906545407974232,0.8509339999999999,0.0006793237814179448
60,0.7947278000000001,0.0015716446672196444,0.8516854,0.0007275291334372836
61,0.7948230000000001,0.001619692810381009,0.8522031999999999,0.0007514610834900401
62,0.795012,0.0016881714367919024,0.8527593999999998,0.0007777422709355352
63,0.7951960000000001,0.001535627949732603,0.853506,0.0007834163643938053
64,0.7954416,0.001551193811230584,0.8543103999999999,0.0009228554816437904
65,0.7956032000000001,0.0015386074743091577,0.8550229999999999,0.0008350695779394859
66,0.7958381999999999,0.0014497005759811356,0.8557830000000001,0.0008340270978811265
67,0.7959348,0.0014714973870177338,0.8562261999999998,0.0008753155773776814
68,0.7960329999999999,0.0014625172819491597,0.8568296,0.0009888246760675165
69,0.7960958,0.001470011482948337,0.8574804,0.001076365291153513
70,0.7963207999999999,0.0014511881201277601,0.8582430000000001,0.0008843512876679664
71,0.7963317999999999,0.0014570933257688225,0.8587897999999999,0.0008528827351987025
72,0.7964322,0.0015112578072585786,0.8593889999999998,0.0007997642152534876
73,0.7965642,0.0014135432642830641,0.8600369999999999,0.0007320079234543865
74,0.796709,0.0014716969796802482,0.8606636000000002,0.0008562365560988266
75,0.7967618,0.001462802980582151,0.8612168,0.0007756023207804515
76,0.7968368,0.0013708250654259314,0.8618590000000002,0.000741056273166891
77,0.7970094000000001,0.0012925970137672592,0.8625644000000001,0.0007814296129530844
78,0.797107,0.0011917489668550048,0.8632886000000001,0.0009670378689585914
79,0.797139,0.0011823124798461745,0.8638268,0.0011476102822822855
80,0.7971579999999999,0.001284329397000636,0.8646098,0.001167975753172973
81,0.797215,0.0013973099870823232,0.8650665999999999,0.001189018519620279
82,0.7973465999999999,0.001335009153526678,0.8657387999999999,0.0011059329816946535
83,0.7974122000000001,0.00130745269895319,0.8662449999999999,0.0010305392763014934
84,0.797532,0.001317840809809758,0.8668147999999999,0.0010305191701273475
85,0.7975977999999999,0.001427447988544613,0.8673296,0.0010752431538958943
86,0.797696,0.0014183638461269519,0.8679194000000001,0.0009811366061869544
87,0.7978488,0.0014981667997923261,0.8685231999999999,0.0009665744461757771
88,0.7979234,0.001512998691341142,0.8691242000000001,0.0009557310081817105
89,0.7979769999999999,0.0014935111650068238,0.869735,0.0010308873847321765
90,0.7980383999999999,0.0014827664145103745,0.8701706,0.000928237598893744
91,0.7981544,0.0015599082793549312,0.870956,0.0009693296652841809
92,0.798159,0.0014866971446801075,0.8714485999999999,0.000966626008340356
93,0.7982672000000001,0.001440373201639062,0.8720418000000001,0.0009428667774399732
94,0.7983663999999999,0.0014706355904845938,0.8726332000000001,0.0010230525695193058
95,0.798342,0.0015230223898551308,0.8730358,0.0009992820222539725
96,0.7984738,0.0015523692086613706,0.8735466000000001,0.0008068795697004616
97,0.7985186000000001,0.001515198284053944,0.8739405999999998,0.0009259037962985303
98,0.7985328,0.0014894071840836295,0.8743458000000001,0.0009448708694842765
99,0.7985324,0.0014016474021664837,0.8747674,0.0008953275601700385
100,0.7984777999999999,0.0014612830526629826,0.8752158000000001,0.0008670357316742869
101,0.7986622,0.0015235476231480192,0.8758630000000001,0.000893763503394486
102,0.7987643999999999,0.0016068311174482724,0.8763629999999999,0.0007588646783188469
103,0.7987104,0.0015719708139783997,0.8768857999999999,0.0008823435612050439
104,0.7987548,0.0015533938843706194,0.8773947999999999,0.0009167862128108199
105,0.7987888,0.0014648179955202682,0.8778742000000002,0.0008690515289670615
106,0.7988792000000001,0.0014414319824396723,0.8784430000000001,0.0009269565254098928
107,0.7989566,0.001472494835305041,0.8789809999999999,0.0010037392091574477
108,0.7990804,0.0014275497329340123,0.8794858,0.0009265284453269561
109,0.799066,0.0014611919791731407,0.8800122,0.000993877537727844
110,0.7991354,0.0014994271706221605,0.8805758000000001,0.000851863228458664
111,0.7991234,0.0016083606063318264,0.8811616000000001,0.0008101090296990953
112,0.799178,0.0015509277223649007,0.8815486,0.0008093245578876324
113,0.7992114,0.001560419251355229,0.8820286000000002,0.0008367885276460361
114,0.7992647999999999,0.0015982618558922246,0.8826554,0.0009014968885137647
115,0.7992988,0.0015836736279928457,0.8832378000000001,0.0007693613975239298
116,0.7993674000000001,0.001583630840821198,0.8838126000000001,0.0008322702926333556
117,0.7994164,0.0016417601042783185,0.8843021999999999,0.000979069640015464
118,0.799327,0.001635213135955073,0.8847951999999999,0.0008789294397162833
119,0.7993186,0.0016465919470226916,0.8852616000000001,0.0008966420913608759
120,0.7994198,0.0016664663692976187,0.8857816,0.0008442780584617915
121,0.799412,0.0016599954216804315,0.8861696,0.0008388724813700804
122,0.7994888,0.0016969546134178025,0.8867464,0.0009809290698108634
123,0.7995774000000001,0.001645953292168389,0.887143,0.0010655518757901826
124,0.7995858,0.0016291422773963165,0.8875964000000002,0.0010179504113658898
125,0.7996291999999999,0.0016595123862147242,0.8881962,0.0011346189492512494
126,0.7996472000000001,0.0016778826419032039,0.8886416,0.000994142967585673
127,0.799785,0.0016466382723597816,0.889115,0.0010528986655894417
128,0.799796,0.0016735255002538814,0.8896710000000001,0.0010645355794899564
129,0.7997798,0.0016629085843785636,0.8901658000000001,0.0011628020295819962
130,0.7997622,0.0015806172718276824,0.890655,0.0011044995246716994
131,0.799802,0.0016415403741608266,0.8910142000000001,0.001072353001581108
132,0.7998188,0.001645130924881061,0.8913565999999999,0.001013727300609019
133,0.799787,0.0016107933449080322,0.8918494000000001,0.0009983235146985275
134,0.7997194000000001,0.0016500977668004835,0.8922322000000001,0.0009704080378892301
135,0.7996888,0.001592664861168214,0.8925449999999999,0.0009692840656896947
136,0.7998187999999999,0.0015613490833250483,0.8928980000000001,0.0010320009689917997
137,0.7999307999999999,0.0015920710285662356,0.8933926,0.0011389694640331787
138,0.7999022,0.0015121368192064946,0.8939134,0.0009675113642743604
139,0.7999274,0.0015016590292073382,0.8942732,0.0009643610112400805
140,0.8000016000000001,0.0015428880192677697,0.8947082,0.00091604702936041
141,0.8000577999999999,0.001640778644424665,0.8950906,0.0009736828230999902
142,0.8000551999999999,0.0016848323833545148,0.8957112,0.001066255391545583
143,0.8001172000000001,0.0016580039083186821,0.896126,0.0010766237968761506
144,0.8001286000000001,0.0017274073752302746,0.8965152,0.001110423234627234
145,0.8000860000000001,0.001827432406410688,0.8970312,0.0011723607635877081
146,0.8001056,0.0018130750232684797,0.8975150000000001,0.001208408374681336
147,0.8001472,0.001831157273420294,0.8980542,0.0011413792358370744
148,0.8002286,0.0019008157827627512,0.8986492000000001,0.0010713530510527475
149,0.8001986000000001,0.0019240833245989966,0.8991125999999999,0.0011118119625188375
150,0.8001728,0.0018762889329737911,0.899568,0.0011320007067135728
151,0.8002378,0.0019498598308596495,0.9000309999999999,0.0010210874595253734
152,0.8002262,0.0019568283930891913,0.9003871999999999,0.0010923555098959184
153,0.8002990000000001,0.0018668642157371731,0.9007756,0.0011428645764043793
154,0.8002964,0.001861936690653024,0.9012664000000001,0.0010048686680357692
155,0.8002714,0.0018686514495753403,0.9018178000000001,0.000989806526549525
156,0.800194,0.001751042546599024,0.9023966,0.0008835776366567967
157,0.8002431999999999,0.0017713294893949077,0.9029496,0.00082507250590479
158,0.8002394,0.0017940127758742346,0.9034972,0.000798091072497344
159,0.800196,0.0017842388853513882,0.9038932000000001,0.000759745062504509
160,0.8001577999999998,0.0017408330649433007,0.9042562000000001,0.0008582219759479568
161,0.8001152000000001,0.0017673244637021325,0.9048082,0.0008625817990196668
162,0.8000700000000001,0.0017863654721248972,0.9052574,0.000889660744329015
163,0.8001394,0.0018368336451622606,0.9056600000000001,0.0008627822436745051
164,0.8002331999999999,0.00189435027384061,0.9061934,0.0008050283473269626
165,0.8001346,0.0018495276802470402,0.9067316,0.0008337962820737442
166,0.8001246,0.00190699801782803,0.9071505999999999,0.0009408038265228139
167,0.8001400000000001,0.0019062626261876782,0.9075903999999999,0.0009155685883646109
168,0.8002592,0.0018549535196332977,0.9080205999999998,0.0007966995920671442
169,0.8003136,0.001793868512461254,0.9086155999999999,0.000748893210010627
170,0.8003180000000001,0.0018475587135460877,0.9090147999999999,0.0007930264560530012
171,0.8003677999999999,0.0019139775756261922,0.9094809999999999,0.0007099284470987356
172,0.8004426,0.001966620512452766,0.9099805999999999,0.0006928943931076251
173,0.8004487999999998,0.001945867148599807,0.9104479999999999,0.0006731510974513776
174,0.8004876,0.0019809411500597493,0.9109415999999999,0.0005785276484318002
175,0.8005112000000001,0.002002577778764179,0.911384,0.0005823342682686608
176,0.8005718,0.0019687483739675854,0.9118304,0.0006115562443471494
