,test-auc-mean,test-auc-std,train-auc-mean,train-auc-std
0,0.8212732,0.01997259962448553,0.840113,0.00948426494779644
1,0.8543418,0.008560104307775696,0.8719975999999999,0.011245403089262756
2,0.8716492,0.0035167477248162055,0.8876278,0.005773553339149123
3,0.8797142000000001,0.004946414717752679,0.8953246,0.008154066975442381
4,0.8857538,0.004594781100335487,0.9028304,0.006195474496759721
5,0.8931625999999999,0.004702551418113335,0.9079636000000001,0.0061076472262238625
6,0.8964698,0.003488522747525083,0.913348,0.004914750817691584
7,0.8977978,0.0041980125964556315,0.9161002,0.005161019992210819
8,0.8984606000000002,0.0025533644941527593,0.9184228000000001,0.0041575254851894975
9,0.9019510000000001,0.0047176431403827025,0.9211784,0.004942001804936953
10,0.9049389999999999,0.003479088443831224,0.9244962000000001,0.004183277059913668
11,0.9061092000000001,0.0030107363484702322,0.9269297999999999,0.003839301936550424
12,0.9072716,0.0022415333680317943,0.9285778,0.0036216061851062614
13,0.9075296000000002,0.0019412022666378905,0.9294779999999999,0.0034297074510809137
14,0.9087642,0.001783626687398441,0.9308160000000001,0.003832635281369732
15,0.9095848,0.0035296550199701085,0.9324308,0.003917303991267484
16,0.9107700000000001,0.00407376886924137,0.933717,0.003792122466376835
17,0.911037,0.004014483926982396,0.9350886,0.004060996852990666
18,0.9127903999999999,0.0045133092338105925,0.9372753999999999,0.0030911429989568715
19,0.9133974,0.004596588717734043,0.9384859999999999,0.00306419718686641
20,0.9134244,0.004446573359340846,0.9392303999999999,0.003206826007129172
21,0.91397,0.004349273226643739,0.9400086,0.003535697079784983
22,0.9137739999999999,0.004178628674577346,0.9410105999999999,0.0027490093197368617
23,0.9142243999999999,0.004957363597720071,0.9420916,0.002357740409799169
24,0.915062,0.0043768588279723885,0.9431362,0.00249067174874572
25,0.9156755999999999,0.005001373675301613,0.9444840000000001,0.0020257072838887704
26,0.9162891999999999,0.00530639174580996,0.9455278,0.002148199841727965
27,0.9163209999999999,0.005526711318677685,0.9470243999999999,0.0017335656434067008
28,0.9162721999999999,0.005175455125880215,0.9483805999999999,0.0014435870046519762
29,0.9166958,0.005616244809479022,0.9499696,0.0015494305534614965
30,0.9172293999999999,0.004943112161381747,0.9511528,0.0014724813615119114
31,0.9176942,0.004924089576764428,0.9525271999999999,0.0013819751662023448
32,0.9187782,0.0054332125450786565,0.9540054,0.0014056282011968963
33,0.9191268000000001,0.004979035223815958,0.9548922,0.0013475587408346894
34,0.9197393999999999,0.004546606101258404,0.9563065999999999,0.0016933102019417434
35,0.9201005999999999,0.004692718257044613,0.9572474,0.0019767638806898248
36,0.9194794,0.004599295363422543,0.9586138,0.002505716456425174
37,0.9195492,0.004026939900222001,0.9597132,0.0024906034931317282
38,0.9199562,0.004223759245032797,0.9605926,0.0020171166153695737
39,0.9204266000000001,0.004088295468774256,0.9615235999999999,0.0021975242069201322
40,0.9214388,0.005301703552632874,0.9627242,0.0019072826114658332
41,0.9221197999999999,0.005203529702038787,0.9638135999999999,0.0014501615909959622
42,0.9230166000000001,0.004952557908798246,0.964753,0.0016384303463986756
43,0.9237264,0.004251691597470337,0.9659178,0.0018201743213219733
44,0.9236357999999999,0.0037787123415258723,0.9668675999999999,0.001725238487861902
45,0.924021,0.003618796761355896,0.9678549999999999,0.0015187276253495773
46,0.9240594,0.004064707940307663,0.9686232,0.0015208509986188454
47,0.9248320000000001,0.003657774459968808,0.9699589999999999,0.0011069448044053545
48,0.9250362000000001,0.003188545837838934,0.9705826,0.0009945800319733163
49,0.9250758000000001,0.0027873618638418903,0.9717383999999999,0.001140153779101742
50,0.9251330000000001,0.0031794910284509304,0.9727986,0.0010181007022883445
51,0.9254422,0.002872847604729475,0.9737558,0.0011405432740584616
52,0.9259386,0.003184910460279858,0.9747704,0.000949814002844764
53,0.9266998,0.0034057764107469127,0.9754372,0.0008889003093710657
54,0.9274737999999999,0.003332765002216637,0.9763786,0.0008874857970694358
55,0.9276835999999999,0.0034015432732805396,0.9770994,0.0010924245694783556
56,0.9282174,0.0033643014490381293,0.9777442000000001,0.0009723549557646315
57,0.9285906,0.003405825808816397,0.9784967999999999,0.0009578641657354143
58,0.9286403999999999,0.003399519177766174,0.9792548,0.0007378743524476629
59,0.9285935999999999,0.0032427106315550468,0.9799555999999999,0.0007465648263881906
60,0.9285653999999999,0.0032036653133559268,0.980518,0.0007154615293640564
61,0.9290526,0.003338609027723975,0.9809482,0.0007703119887422135
62,0.9295134,0.0032307295522838414,0.9814586000000001,0.0008153579827290606
63,0.9300606,0.00313474991666003,0.9820152,0.0007677427694221667
64,0.9303166,0.0033691650953908293,0.9826699999999999,0.0007137551400865503
65,0.9304410000000001,0.0037024992640107292,0.9831512000000002,0.0008167627317648598
66,0.9304821999999999,0.0038249751580892635,0.9837351999999999,0.0007496893756750079
67,0.9303327999999998,0.0036044726327161573,0.984237,0.0007607030958264908
68,0.9303484000000001,0.003349591772141779,0.9846762,0.0008369488395356307
69,0.930889,0.003269207855123306,0.9851637999999999,0.0007572580537703168
70,0.9312287999999999,0.0031203473140020894,0.985559,0.0008546620384690067
71,0.9311564000000001,0.003215659285434331,0.9860412000000001,0.0007898033679340634
72,0.9313442000000001,0.003344547407348289,0.9863926,0.0008160023529377687
73,0.9314982,0.003449109763402723,0.9866835999999999,0.0007580531907458878
74,0.9316888000000001,0.0033140524075518005,0.9870082,0.0007322096421107822
75,0.9315854,0.0033801241160643742,0.9874506000000001,0.000679834273922687
76,0.931696,0.0034872666660294084,0.9876826,0.0006778833527975319
77,0.931885,0.003526101530018669,0.9880256,0.000604466905628426
78,0.9320145999999999,0.003685371655613584,0.9882138000000001,0.0006146889945330253
79,0.9319803999999999,0.0035476986681509484,0.9885366,0.0006615265981047294
80,0.932105,0.003749039183577569,0.9887900000000001,0.000644008695593484
81,0.9323204,0.004071933427746557,0.989141,0.0005735758014421363
82,0.9326102000000001,0.0038562681130854958,0.98949,0.0005657306779731769
83,0.9324814,0.0038798871426885496,0.9898513999999998,0.0005285892923622144
84,0.9325073999999999,0.0037164967159948018,0.9900882,0.000542241791085862
85,0.9328966,0.0038631009098909277,0.9902987999999999,0.0005078887279709979
86,0.9329276,0.0036876896073286627,0.9904372,0.000503053237739295
87,0.9327904,0.0038713104034680665,0.9905808,0.00046760769882457756
88,0.9328152,0.004044593596395049,0.9907204000000001,0.0004915211490872016
89,0.9330084,0.003942476916863291,0.9908818,0.0005099209350477698
90,0.933099,0.00383807060904304,0.9910638,0.000508324856759928
91,0.9331916,0.0036257400127422262,0.9912392000000001,0.0005063182398452423
92,0.9332698,0.0037295662696887207,0.9914934000000001,0.00041415967935087264
