,test-auc-mean,test-auc-std,train-auc-mean,train-auc-std
0,0.500964,0.00221534015446837,0.506398,0.004455369838745142
1,0.5545954,0.06885049668549967,0.5631804,0.06388600015214603
2,0.5938169999999999,0.05676506913586912,0.6110127999999999,0.051283332346484654
3,0.6538484,0.04206472114539689,0.6983846,0.026055980761429818
4,0.6870616,0.04047127655313086,0.7312004,0.020453913655826366
5,0.7002546,0.03730998282283175,0.7463702000000001,0.016183079996094685
6,0.7164792,0.03244353670240036,0.7586776000000001,0.018590126041530767
7,0.722913,0.02655132170721449,0.767103,0.017671906348778535
8,0.7258745999999999,0.025121217714115678,0.770233,0.01955067478119364
9,0.7342179999999999,0.023587426336927897,0.7742570000000001,0.021345200275471758
10,0.7360346,0.02688270344738415,0.7778082000000002,0.02512420535181162
11,0.7400718000000001,0.023517552979848932,0.7886340000000001,0.018955185770653884
12,0.7549986000000001,0.021774695658952393,0.7978393999999999,0.02219557975453674
13,0.760403,0.017202870795306233,0.8057283999999999,0.019603311542696056
14,0.7647096,0.014311201243781062,0.813193,0.014393069318251761
15,0.7700094,0.014779717907998095,0.819083,0.015082148719595616
16,0.7724987999999999,0.015407135222357215,0.8255142,0.012554575793709654
17,0.776308,0.013752704199538345,0.8318515999999999,0.009894656428598197
18,0.7837628000000001,0.01625447423203838,0.8429882,0.008507534011686343
19,0.7895448,0.01689730674870997,0.8514592000000001,0.008893792878181954
20,0.791072,0.017698445434557248,0.8584077999999999,0.008432838297987202
21,0.7946557999999999,0.02090473286507148,0.8640214,0.005685892141080414
22,0.7963842,0.02095329431282824,0.8687194,0.007956256345794815
23,0.7985574,0.020839616921623078,0.8734826,0.006110439741949841
24,0.8017002,0.023795312911579884,0.8805206,0.005000262857090597
25,0.8033996,0.023080714760162876,0.8834652000000001,0.006123609177601095
26,0.8030626,0.023627273059750247,0.8862593999999999,0.004927866702742682
27,0.8037784,0.026010252767706823,0.8899837999999999,0.0035979228118457446
28,0.8045828,0.021893432534895008,0.8942454,0.005071178506027964
29,0.8047704000000001,0.02073888228039305,0.8976678,0.0040552009765238185
30,0.8051288,0.019345547605586145,0.8991735999999999,0.005267516477430306
31,0.8063264,0.018043076241040495,0.9030054,0.005738552033396598
32,0.8054638000000001,0.0174870449350369,0.9066592,0.006919681044672501
33,0.8067132000000001,0.015365217283201659,0.9108886,0.004549916860778907
34,0.8071811999999999,0.014610607563000252,0.9150358000000001,0.004790513099867299
35,0.8114051999999999,0.015488576143726075,0.9185818000000001,0.0038698867890417476
36,0.8118212,0.017021423811185696,0.9211056000000001,0.004098110325503669
37,0.8111704,0.017207988663408655,0.9222234,0.004002912619580894
38,0.8125396,0.01978833285145568,0.924127,0.004724937375246366
39,0.8128985999999999,0.020596475150860175,0.9277901999999999,0.00471074377991416
40,0.8159091999999999,0.01976340763532444,0.9292624,0.004970105697065194
41,0.8169414000000002,0.017031005344371193,0.9328102000000001,0.003530315645944441
42,0.8192731999999999,0.016704496225866852,0.9337991999999999,0.0032335527458200153
43,0.8193935999999999,0.016220053681785383,0.940583,0.0023757637087892178
44,0.8199377999999999,0.016585471369846578,0.942196,0.002726959992372447
45,0.8190425999999998,0.017642444395264505,0.9433958,0.0033816167375975807
46,0.817846,0.017980577343344673,0.9463334,0.004110697099033196
47,0.8176826,0.017987465030959753,0.9486214000000001,0.004002455876084074
48,0.820111,0.018605701137017122,0.951108,0.003663909005420296
49,0.8208110000000002,0.017218825941393335,0.9525354,0.0034860591274389033
50,0.8228012,0.01679297646517734,0.9547888,0.00379029531303298
51,0.8249168000000001,0.017914179874055077,0.9569184,0.004186294858224841
52,0.8257836000000001,0.018034606827984894,0.9584347999999998,0.0030425750541277084
53,0.8259442,0.01734946887256204,0.9604454,0.002391994280929618
54,0.8282928,0.01808900476422071,0.9634955999999999,0.002613751373026914
55,0.8287797999999998,0.018153855760140884,0.9655606000000001,0.0018817549893649663
56,0.8296543999999999,0.017657228770110004,0.9671695999999999,0.0017344425732782444
57,0.8297513999999999,0.016791821063839366,0.9681626000000001,0.0017646700088118333
58,0.83018,0.017613568508397126,0.9700485999999999,0.0017547878048356574
59,0.8311341999999999,0.016812708019828346,0.9718604,0.0019959782163139947
60,0.8308287999999999,0.01727345025639062,0.9730506,0.0014527070730191948
61,0.8309158,0.01712442082407461,0.9742850000000001,0.0017129965557466994
62,0.832211,0.01657947204225752,0.9763576,0.00150169672037999
63,0.8306530000000001,0.016535839113876252,0.9775894,0.0016540760079271028
64,0.8322926,0.01601785714257686,0.9786364000000001,0.001457756440562
65,0.833028,0.016331740838012324,0.9798937999999999,0.0015003908024244657
66,0.8336667999999999,0.017920307903604802,0.9813304,0.0016148060688516122
67,0.8343398000000001,0.019667993140124893,0.9822892,0.001702125189285412
68,0.8351416,0.018901507438297094,0.9831586,0.0018174602719179449
69,0.8347666,0.019198895182796306,0.9844404000000001,0.001584017626164564
70,0.8354636,0.01916204936430341,0.985237,0.001661227257180671
71,0.836533,0.01928892669901569,0.9858179999999999,0.0017546351187640106
72,0.8384465999999999,0.018580416428056707,0.9863506,0.0017704874583006696
73,0.8386192000000001,0.019146806630871885,0.9870174,0.0019221578082977266
74,0.8385070000000001,0.018748741664442424,0.9878432,0.001724973901251851
75,0.839717,0.01786724963725528,0.9883265999999999,0.0016975988454284616
76,0.839474,0.018558166213287357,0.988776,0.0015873990046613913
77,0.8387689999999999,0.018326042529689834,0.9895440000000001,0.001429389380120074
78,0.8385816,0.01882920862489978,0.9898643999999999,0.001356725115858017
79,0.8393648,0.01930375146338142,0.9902194,0.0014341723187957457
80,0.8396268000000001,0.020274913951975254,0.9907138,0.0014167433641983213
81,0.8394116,0.019915742101162075,0.9911082,0.001434678138120183
82,0.8385676,0.019816695603455184,0.9913259999999999,0.0013724092684035576
83,0.8384388000000002,0.019129205737824024,0.9918921999999999,0.0013535428179411255
84,0.837735,0.019853998116248515,0.9924291999999999,0.0013020893056929883
85,0.8398108000000001,0.018804411763200666,0.9927876000000001,0.0012463451528368997
86,0.8391938,0.018316125948464088,0.9930959999999999,0.001298800677548335
87,0.8401294,0.0178539475254074,0.9933612,0.0012712717097457936
